%YAML 1.1
%TAG !u! tag:unity3d.com,2011:
--- !u!1045 &1
EditorBuildSettings:
  m_ObjectHideFlags: 0
  serializedVersion: 2
  m_Scenes:
  - enabled: 1
    path: Assets/Scenes/Menu.unity
    guid: e169b40c5f96cf54fb38f9b0a8c80b74
  - enabled: 1
    path: Assets/Scenes/Game.unity
    guid: 213d8d178f7abab4ca0f28970c3c38c2
  - enabled: 1
    path: Assets/Scenes/LoseScreen.unity
    guid: edb9476813eee8045b155e6eb6dd9448
  - enabled: 1
    path: Assets/Scenes/Win Screen.unity
    guid: 83937aeee94dfee4fa0e60ee54050524
  m_configObjects: {}
